^C:\USERS\JKAPUSCINSKI\DESKTOP\LISTADDSUBSTRMULTI\DEBUG\LIST.OBJ|C:\USERS\JKAPUSCINSKI\DESKTOP\LISTADDSUBSTRMULTI\DEBUG\LISTADDSUBSTRMULIT.OBJ|C:\USERS\JKAPUSCINSKI\DESKTOP\LISTADDSUBSTRMULTI\DEBUG\MATHOPERATIONS.OBJ
C:\USERS\JKAPUSCINSKI\DESKTOP\LISTADDSUBSTRMULTI\DEBUG\LISTADDSUBSTRMULTI.EXE
C:\USERS\JKAPUSCINSKI\DESKTOP\LISTADDSUBSTRMULTI\DEBUG\LISTADDSUBSTRMULTI.ILK
C:\USERS\JKAPUSCINSKI\DESKTOP\LISTADDSUBSTRMULTI\DEBUG\LISTADDSUBSTRMULTI.PDB
